	x1	x2	s1	s2	b
s1	6	9	1	0	100	
s2	2	1	0	1	20	
c	-2000	-3000	0	0	0	

	x1	x2	s1	s2	b
x2	2/3	1	1/9	0	100/9	
s2	4/3	0	-1/9	1	80/9	
c	0	0	1000/3	0	100000/3	

	x1	x2	s1	s2	b
x2	0	1	1/6	-1/2	20/3	
x1	1	0	-1/12	3/4	20/3	
c	0	0	1000/3	0	100000/3	

SOLUTION FOUND: multiple solutions
Objective: z = 100000/3
0	100/9	0	80/9	
20/3	20/3	0	0	