	x1	x2	s1	s2	s3	b
s1	1	0	1	0	0	15	
s2	1	4	0	1	0	21	
s3	-2/5	3/5	0	0	1	0	
c	-50	-200	0	0	0	0	

	x1	x2	s1	s2	s3	b
s1	1	0	1	0	0	15	
x2	1/4	1	0	1/4	0	21/4	
s3	-11/20	0	0	-3/20	1	-63/20	
c	0	0	0	50	0	1050	

	x1	x2	s1	s2	s3	b
s1	0	0	1	-3/11	20/11	102/11	
x2	0	1	0	2/11	5/11	42/11	
x1	1	0	0	3/11	-20/11	63/11	
c	0	0	0	50	0	1050	

	x1	x2	s1	s2	s3	b
s3	0	0	11/20	-3/20	1	51/10	
x2	0	1	-1/4	1/4	0	3/2	
x1	1	0	1	0	0	15	
c	0	0	0	50	0	1050	

	x1	x2	s1	s2	s3	b
s1	0	0	1	-3/11	20/11	102/11	
x2	0	1	0	2/11	5/11	42/11	
x1	1	0	0	3/11	-20/11	63/11	
c	0	0	0	50	0	1050	

SOLUTION FOUND: multiple solutions
Objective: z = 1050
63/11	42/11	102/11	0	0	
15	3/2	0	0	51/10	